Assignment 1 - 4 Day Four Practical:
…
# UtilsDataRSV Installation:
if (!requireNamespace("remotes", quietly = TRUE)) {
  install.packages("remotes")
}
remotes::install_github("SATVILab/UtilsDataRSV")

4.2 Question 1:

As a Tibble:

flights <- as_tibble(nycflights13::flights)
flights

# A tibble: 336,776 × 19
    year month   day dep_time sched_dep_time dep_delay arr_time sched_arr_time
   <int> <int> <int>    <int>          <int>     <dbl>    <int>          <int>
 1  2013     1     1      517            515         2      830            819
 2  2013     1     1      533            529         4      850            830
 3  2013     1     1      542            540         2      923            850
 4  2013     1     1      544            545        -1     1004           1022
 5  2013     1     1      554            600        -6      812            837
 6  2013     1     1      554            558        -4      740            728
 7  2013     1     1      555            600        -5      913            854
 8  2013     1     1      557            600        -3      709            723
 9  2013     1     1      557            600        -3      838            846
10  2013     1     1      558            600        -2      753            745
# ℹ 336,766 more rows
# ℹ 11 more variables: arr_delay <dbl>, carrier <chr>, flight <int>,
#   tailnum <chr>, origin <chr>, dest <chr>, air_time <dbl>, distance <dbl>,
#   hour <dbl>, minute <dbl>, time_hour <dttm>
…
# A tibble: 1 × 3
  month carrier distance
  <int> <chr>      <dbl>
1     1 OO           733

Why One Carrier’s SD is Zero:

Because all of the flights carrier “YV” operated in January were the same distance. The standard deviation of n values when all of the values are equal is always 0.

flights |> 
  filter(carrier == "YV" & month == 1) |>
    select(month, carrier, distance)

# A tibble: 46 × 3
   month carrier distance
   <int> <chr>      <dbl>
 1     1 YV           229
 2     1 YV           229
 3     1 YV           229
 4     1 YV           229
 5     1 YV           229
 6     1 YV           229
 7     1 YV           229
 8     1 YV           229
 9     1 YV           229
10     1 YV           229
# ℹ 36 more rows
…
# Airlines as a tibble
airlines <- as_tibble(nycflights13::airlines)

Identifying Routes that More Than One Airline Flies:

multi_carrier_routes <- flights |>
  filter(!is.na(arr_delay)) |>
    group_by(origin, dest) |>
      summarise(n_carriers = n_distinct(carrier)) |>
        filter(n_carriers > 1)

multi_carrier_routes

# A tibble: 127 × 3
# Groups:   origin [3]
   origin dest  n_carriers
   <chr>  <chr>      <int>
 1 EWR    ATL            4
 2 EWR    AUS            2
 3 EWR    BDL            2
 4 EWR    BNA            2
 5 EWR    BOS            3
 6 EWR    BWI            2
 7 EWR    CHS            2
 8 EWR    CLE            2
 9 EWR    CLT            3
10 EWR    CVG            2
# ℹ 117 more rows

Calculating the Average Arrival Delay for Each Airline for Each Such Route Excluding NAs and Finding the Names of These Airlines:

multi_carrier_routes_avg_arr_delay <- flights |> 
  semi_join(multi_carrier_routes, by = c("origin", "dest")) |>
    group_by(origin, dest, carrier) |>
      summarise(n_flights = sum(!is.na(arr_delay)),
                avg_arr_delay = mean(arr_delay, na.rm = TRUE)) |>
        left_join(airlines, by = "carrier") |>
          rename(airline_name = name) |>
            relocate(airline_name, avg_arr_delay, .before = carrier)

multi_carrier_routes_avg_arr_delay

# A tibble: 341 × 6
# Groups:   origin, dest [127]
   origin dest  airline_name             avg_arr_delay carrier n_flights
   <chr>  <chr> <chr>                            <dbl> <chr>       <int>
 1 EWR    ATL   Endeavor Air Inc.                -6.25 9E              4
 2 EWR    ATL   Delta Air Lines Inc.             10.00 DL           3116
 3 EWR    ATL   ExpressJet Airlines Inc.         19.5  EV           1654
 4 EWR    ATL   United Air Lines Inc.            10.5  UA            102
 5 EWR    AUS   United Air Lines Inc.             4.28 UA            664
 6 EWR    AUS   Southwest Airlines Co.          -11.2  WN            293
 7 EWR    BDL   ExpressJet Airlines Inc.          6.78 EV            405
 8 EWR    BDL   United Air Lines Inc.            22.6  UA              7
 9 EWR    BNA   ExpressJet Airlines Inc.         17.7  EV           1677
10 EWR    BNA   Southwest Airlines Co.           -2.13 WN            564
# ℹ 331 more rows
…
best_worst_by_route <- multi_carrier_routes_avg_arr_delay |>
  group_by(origin, dest) |>
    summarise(
  
      worst_airline = airline_name[which.max(avg_arr_delay)],
      worst_avg_arr_delay = max(avg_arr_delay, na.rm = TRUE),
  
      best_airline = airline_name[which.min(avg_arr_delay)],
      best_avg_arr_delay = min(avg_arr_delay, na.rm = TRUE),
  
    )

best_worst_by_route

# A tibble: 127 × 6
# Groups:   origin [3]
   origin dest  worst_airline            worst_avg_arr_delay best_airline       
   <chr>  <chr> <chr>                                  <dbl> <chr>              
 1 EWR    ATL   ExpressJet Airlines Inc.               19.5  Endeavor Air Inc.  
 2 EWR    AUS   United Air Lines Inc.                   4.28 Southwest Airlines…
 3 EWR    BDL   United Air Lines Inc.                  22.6  ExpressJet Airline…
 4 EWR    BNA   ExpressJet Airlines Inc.               17.7  Southwest Airlines…
 5 EWR    BOS   JetBlue Airways                         6.87 ExpressJet Airline…
 6 EWR    BWI   ExpressJet Airlines Inc.               20.1  Southwest Airlines…
 7 EWR    CHS   ExpressJet Airlines Inc.               16.2  United Air Lines I…
 8 EWR    CLE   United Air Lines Inc.                   5.97 ExpressJet Airline…
 9 EWR    CLT   ExpressJet Airlines Inc.               20.5  US Airways Inc.    
10 EWR    CVG   ExpressJet Airlines Inc.               21.2  Endeavor Air Inc.  
# ℹ 117 more rows
# ℹ 1 more variable: best_avg_arr_delay <dbl>
…
# A tibble: 1 × 6
  origin dest  worst_airline worst_avg_arr_delay best_airline best_avg_arr_delay
  <chr>  <chr> <chr>                       <dbl> <chr>                     <dbl>
1 JFK    ATL   ExpressJet A…                 128 Endeavor Ai…               1.40

Determining the Reason for this Difference:

# All Flights on Route:
JFK_to_ATL_diagnostic <- flights |>
  filter(!is.na(arr_delay) & origin == "JFK" & dest == "ATL")

JFK_to_ATL_diagnostic

# A tibble: 1,920 × 19
    year month   day dep_time sched_dep_time dep_delay arr_time sched_arr_time
   <int> <int> <int>    <int>          <int>     <dbl>    <int>          <int>
 1  2013     1     1      606            610        -4      837            845
 2  2013     1     1      807            810        -3     1043           1043
 3  2013     1     1     1325           1330        -5     1606           1605
 4  2013     1     1     1621           1548        33     1904           1830
 5  2013     1     1     1856           1855         1     2142           2142
 6  2013     1     2      606            610        -4      846            845
 7  2013     1     2      808            810        -2     1049           1045
 8  2013     1     2     1324           1330        -6     1552           1605
 9  2013     1     2     1551           1548         3     1838           1830
10  2013     1     2     1854           1855        -1     2126           2142
# ℹ 1,910 more rows
# ℹ 11 more variables: arr_delay <dbl>, carrier <chr>, flight <int>,
#   tailnum <chr>, origin <chr>, dest <chr>, air_time <dbl>, distance <dbl>,
#   hour <dbl>, minute <dbl>, time_hour <dttm>
…
# A tibble: 1 × 19
   year month   day dep_time sched_dep_time dep_delay arr_time sched_arr_time
  <int> <int> <int>    <int>          <int>     <dbl>    <int>          <int>
1  2013    10     7      904            700       124     1133            925
# ℹ 11 more variables: arr_delay <dbl>, carrier <chr>, flight <int>,
#   tailnum <chr>, origin <chr>, dest <chr>, air_time <dbl>, distance <dbl>,
#   hour <dbl>, minute <dbl>, time_hour <dttm>

# All Flights by Airline With Best Avg Arrival Delay:
JFK_to_ATL_diagnostic_9E <- flights |>
  filter(!is.na(arr_delay) & origin == "JFK" & dest == "ATL" & carrier == "9E")

JFK_to_ATL_diagnostic_9E

# A tibble: 52 × 19
    year month   day dep_time sched_dep_time dep_delay arr_time sched_arr_time
   <int> <int> <int>    <int>          <int>     <dbl>    <int>          <int>
 1  2013     1     4      615            615         0      851            855
 2  2013     1     7      614            615        -1      812            855
 3  2013     1     8      612            615        -3      901            855
 4  2013     1    10      613            615        -2      840            855
 5  2013     1    11      629            615        14      914            855
 6  2013     1    12      613            615        -2      839            855
 7  2013     1    13      612            615        -3      853            855
 8  2013     1    14      649            615        34      950            855
 9  2013     1    15      612            615        -3      927            855
10  2013     1    16      615            615         0      905            855
# ℹ 42 more rows
# ℹ 11 more variables: arr_delay <dbl>, carrier <chr>, flight <int>,
#   tailnum <chr>, origin <chr>, dest <chr>, air_time <dbl>, distance <dbl>,
#   hour <dbl>, minute <dbl>, time_hour <dttm>
…
Warning: Not all unique entries displayed for these non-numeric cols: id

Resolving Inconsistencies & Displaying Entries With Missing Values:

healthDataSetNoTypos <- healthDataSet |>
  mutate(gender = if_else(gender == "femal", "female", gender),
         disease_status = if_else(disease_status == "Healthy", "healthy", disease_status))

healthDataSetNoTypos

# A tibble: 50 × 15
   id      age gender height weight blood_type disease_status cholesterol
   <chr> <int> <chr>   <dbl>  <dbl> <chr>      <chr>                <dbl>
 1 id_1     50 male     174.   69.4 O          diseased               228
 2 id_2     34 male     198.   62.3 A          healthy                223
 3 id_3     70 male     174.   55.6 O          healthy                213
 4 id_4     33 female   194.   69.5 O          healthy                198
 5 id_5     22 female    NA    78.6 B          healthy                166
 6 id_6     61 male     180.   60.8 AB         healthy                151
 7 id_7     69 female   170.   72.2 O          diseased               195
 8 id_8     73 male     157.   60.9 O          healthy                199
 9 id_9     62 male     197.   75.1 O          diseased               189
10 id_10    56 female   165.   67.7 AB         healthy                196
# ℹ 40 more rows
# ℹ 7 more variables: glucose <dbl>, smoker <chr>, exercise <chr>,
#   income <int>, education <chr>, region <chr>, marital_status <chr>
…
